
{
  "header": {
    "reportVersion": 1,
    "event": "Allocation failed - JavaScript heap out of memory",
    "trigger": "FatalError",
    "filename": "report.20210611.141818.31916.0.001.json",
    "dumpEventTime": "2021-06-11T14:18:18Z",
    "dumpEventTimeStamp": "1623413898020",
    "processId": 31916,
    "cwd": "C:\\Users\\cterleira\\Desktop\\angular\\toh-pt0",
    "commandLine": [
      "node",
      "C:\\Users\\cterleira\\AppData\\Roaming\\npm\\\\node_modules\\@angular\\cli\\bin\\ng",
      "serve"
    ],
    "nodejsVersion": "v12.16.1",
    "wordSize": 64,
    "arch": "x64",
    "platform": "win32",
    "componentVersions": {
      "node": "12.16.1",
      "v8": "7.8.279.23-node.31",
      "uv": "1.34.0",
      "zlib": "1.2.11",
      "brotli": "1.0.7",
      "ares": "1.15.0",
      "modules": "72",
      "nghttp2": "1.40.0",
      "napi": "5",
      "llhttp": "2.0.4",
      "http_parser": "2.9.3",
      "openssl": "1.1.1d",
      "cldr": "35.1",
      "icu": "64.2",
      "tz": "2019c",
      "unicode": "12.1"
    },
    "release": {
      "name": "node",
      "lts": "Erbium",
      "headersUrl": "https://nodejs.org/download/release/v12.16.1/node-v12.16.1-headers.tar.gz",
      "sourceUrl": "https://nodejs.org/download/release/v12.16.1/node-v12.16.1.tar.gz",
      "libUrl": "https://nodejs.org/download/release/v12.16.1/win-x64/node.lib"
    },
    "osName": "Windows_NT",
    "osRelease": "10.0.19042",
    "osVersion": "Windows 10 Pro",
    "osMachine": "x86_64",
    "cpus": [
      {
        "model": "Intel(R) Core(TM) i5-6300U CPU @ 2.40GHz",
        "speed": 2496,
        "user": 31888328,
        "nice": 0,
        "sys": 38065015,
        "idle": 165975203,
        "irq": 2912828
      },
      {
        "model": "Intel(R) Core(TM) i5-6300U CPU @ 2.40GHz",
        "speed": 2496,
        "user": 30228562,
        "nice": 0,
        "sys": 26465781,
        "idle": 179234015,
        "irq": 404562
      },
      {
        "model": "Intel(R) Core(TM) i5-6300U CPU @ 2.40GHz",
        "speed": 2496,
        "user": 34775390,
        "nice": 0,
        "sys": 32076968,
        "idle": 169076015,
        "irq": 368250
      },
      {
        "model": "Intel(R) Core(TM) i5-6300U CPU @ 2.40GHz",
        "speed": 2496,
        "user": 33696515,
        "nice": 0,
        "sys": 26041843,
        "idle": 176190015,
        "irq": 301500
      }
    ],
    "networkInterfaces": [
      {
        "name": "Ethernet",
        "internal": false,
        "mac": "80:ce:62:28:ff:29",
        "address": "192.168.161.168",
        "netmask": "255.255.254.0",
        "family": "IPv4"
      },
      {
        "name": "Loopback Pseudo-Interface 1",
        "internal": true,
        "mac": "00:00:00:00:00:00",
        "address": "::1",
        "netmask": "ffff:ffff:ffff:ffff:ffff:ffff:ffff:ffff",
        "family": "IPv6",
        "scopeid": 0
      },
      {
        "name": "Loopback Pseudo-Interface 1",
        "internal": true,
        "mac": "00:00:00:00:00:00",
        "address": "127.0.0.1",
        "netmask": "255.0.0.0",
        "family": "IPv4"
      }
    ],
    "host": "CTERLEIRA10"
  },
  "javascriptStack": {
    "message": "No stack.",
    "stack": [
      "Unavailable."
    ]
  },
  "nativeStack": [
    {
      "pc": "0x00007ff654ab19f9",
      "symbol": "std::basic_ostream<char,std::char_traits<char> >::operator<<+10873"
    },
    {
      "pc": "0x00007ff654ab5e1c",
      "symbol": "std::basic_ostream<char,std::char_traits<char> >::operator<<+28316"
    },
    {
      "pc": "0x00007ff654ab4dd8",
      "symbol": "std::basic_ostream<char,std::char_traits<char> >::operator<<+24152"
    },
    {
      "pc": "0x00007ff654bb34cb",
      "symbol": "v8::base::CPU::has_sse+38363"
    },
    {
      "pc": "0x00007ff6553c9f4e",
      "symbol": "v8::Isolate::ReportExternalAllocationLimitReached+94"
    },
    {
      "pc": "0x00007ff6553b2021",
      "symbol": "v8::SharedArrayBuffer::Externalize+833"
    },
    {
      "pc": "0x00007ff65527e57c",
      "symbol": "v8::internal::Heap::EphemeronKeyWriteBarrierFromCode+1436"
    },
    {
      "pc": "0x00007ff6552897d0",
      "symbol": "v8::internal::Heap::ProtectUnprotectedMemoryChunks+1312"
    },
    {
      "pc": "0x00007ff6552862f4",
      "symbol": "v8::internal::Heap::PageFlagsAreConsistent+3204"
    },
    {
      "pc": "0x00007ff65527bb13",
      "symbol": "v8::internal::Heap::CollectGarbage+1283"
    },
    {
      "pc": "0x00007ff65527a184",
      "symbol": "v8::internal::Heap::AddRetainedMap+2452"
    },
    {
      "pc": "0x00007ff65529b36d",
      "symbol": "v8::internal::Factory::NewFillerObject+61"
    },
    {
      "pc": "0x00007ff655000c51",
      "symbol": "v8::internal::interpreter::JumpTableTargetOffsets::iterator::operator=+1665"
    },
    {
      "pc": "0x00007ff655814ddd",
      "symbol": "v8::internal::SetupIsolateDelegate::SetupHeap+546637"
    },
    {
      "pc": "0x00007ff655799455",
      "symbol": "v8::internal::SetupIsolateDelegate::SetupHeap+40389"
    },
    {
      "pc": "0x00000015edea9e36",
      "symbol": ""
    }
  ],
  "javascriptHeap": {
    "totalMemory": 2156380160,
    "totalCommittedMemory": 2156380160,
    "usedMemory": 2141334408,
    "availableMemory": 46787000,
    "memoryLimit": 2197815296,
    "heapSpaces": {
      "read_only_space": {
        "memorySize": 262144,
        "committedMemory": 262144,
        "capacity": 32808,
        "used": 32808,
        "available": 0
      },
      "new_space": {
        "memorySize": 2621440,
        "committedMemory": 2621440,
        "capacity": 1309320,
        "used": 218416,
        "available": 1090904
      },
      "old_space": {
        "memorySize": 2009743360,
        "committedMemory": 2009743360,
        "capacity": 2004231800,
        "used": 2001280160,
        "available": 2951640
      },
      "code_space": {
        "memorySize": 14323712,
        "committedMemory": 14323712,
        "capacity": 12249504,
        "used": 12249504,
        "available": 0
      },
      "map_space": {
        "memorySize": 4984832,
        "committedMemory": 4984832,
        "capacity": 3585200,
        "used": 3585200,
        "available": 0
      },
      "large_object_space": {
        "memorySize": 123461632,
        "committedMemory": 123461632,
        "capacity": 123076640,
        "used": 123076640,
        "available": 0
      },
      "code_large_object_space": {
        "memorySize": 983040,
        "committedMemory": 983040,
        "capacity": 891680,
        "used": 891680,
        "available": 0
      },
      "new_large_object_space": {
        "memorySize": 0,
        "committedMemory": 0,
        "capacity": 1309320,
        "used": 0,
        "available": 1309320
      }
    }
  },
  "resourceUsage": {
    "userCpuSeconds": 930.531,
    "kernelCpuSeconds": 103.984,
    "cpuConsumptionPercent": 6.27778,
    "maxRss": 2180395008,
    "pageFaults": {
      "IORequired": 4033663,
      "IONotRequired": 0
    },
    "fsActivity": {
      "reads": 17318,
      "writes": 73
    }
  },
  "libuv": [
  ],
  "environmentVariables": {
    "=C:": "C:\\Users\\cterleira\\Desktop\\angular\\toh-pt0",
    "ALLUSERSPROFILE": "C:\\ProgramData",
    "APPDATA": "C:\\Users\\cterleira\\AppData\\Roaming",
    "ChocolateyInstall": "C:\\ProgramData\\chocolatey",
    "ChocolateyLastPathUpdate": "132302893719926900",
    "CHROME_CRASHPAD_PIPE_NAME": "\\\\.\\pipe\\crashpad_10572_VPYGJYXIEQMQGTTZ",
    "CommonProgramFiles": "C:\\Program Files\\Common Files",
    "CommonProgramFiles(x86)": "C:\\Program Files (x86)\\Common Files",
    "CommonProgramW6432": "C:\\Program Files\\Common Files",
    "COMPUTERNAME": "CTERLEIRA10",
    "ComSpec": "C:\\WINDOWS\\system32\\cmd.exe",
    "DOCKER_TOOLBOX_INSTALL_PATH": "C:\\Program Files\\Docker Toolbox",
    "DriverData": "C:\\Windows\\System32\\Drivers\\DriverData",
    "FPS_BROWSER_APP_PROFILE_STRING": "Internet Explorer",
    "FPS_BROWSER_USER_PROFILE_STRING": "Default",
    "HOMEDRIVE": "C:",
    "HOMEPATH": "\\Users\\cterleira",
    "LOCALAPPDATA": "C:\\Users\\cterleira\\AppData\\Local",
    "LOGONSERVER": "\\\\MADARR12GC02",
    "NUMBER_OF_PROCESSORS": "4",
    "OneDrive": "C:\\Users\\cterleira\\OneDrive",
    "ORIGINAL_XDG_CURRENT_DESKTOP": "undefined",
    "OS": "Windows_NT",
    "Path": "C:\\ProgramData\\Oracle\\Java\\javapath;C:\\Windows\\System32;C:\\Windows;C:\\Windows\\System32\\wbem;C:\\Windows\\System32\\WindowsPowerShell\\v1.0\\;C:\\Program Files\\PuTTY\\;C:\\xampp\\php;C:\\composer;C:\\Program Files (x86)\\Yarn\\bin\\;C:\\Program Files\\SourceGear\\Common\\DiffMerge\\;C:\\Program Files\\Git\\cmd;C:\\Program Files (x86)\\DevDesktop\\tools;C:\\Program Files (x86)\\GnuPG\\bin;C:\\Program Files\\Microsoft VS Code\\bin;C:\\Windows\\System32\\OpenSSH\\;C:\\laragon\\bin\\php\\php-7.2.19-Win32-VC15-x64;C:\\Program Files\\nodejs\\;C:\\ProgramData\\chocolatey\\bin;C:\\Program Files\\TortoiseSVN\\bin;C:\\RailsInstaller\\Git\\cmd;C:\\RailsInstaller\\Ruby2.3.0\\bin;C:\\Users\\cterleira\\AppData\\Local\\Microsoft\\WindowsApps;C:\\Program Files\\Microsoft VS Code\\bin;C:\\Users\\cterleira\\AppData\\Roaming\\Composer\\vendor\\bin;C:\\Users\\cterleira\\AppData\\Local\\Yarn\\bin;C:\\Program Files\\Heroku\\bin;C:\\Program Files\\Docker Toolbox;C:\\Users\\cterleira\\AppData\\Roaming\\npm;C:\\Users\\cterleira\\AppData\\Roaming\\Composer\\vendor\\drush\\drush;",
    "PATHEXT": ".COM;.EXE;.BAT;.CMD;.VBS;.VBE;.JSE;.WSF;.WSH;.MSC;.CPL",
    "PROCESSOR_ARCHITECTURE": "AMD64",
    "PROCESSOR_IDENTIFIER": "Intel64 Family 6 Model 78 Stepping 3, GenuineIntel",
    "PROCESSOR_LEVEL": "6",
    "PROCESSOR_REVISION": "4e03",
    "ProgramData": "C:\\ProgramData",
    "ProgramFiles": "C:\\Program Files",
    "ProgramFiles(x86)": "C:\\Program Files (x86)",
    "ProgramW6432": "C:\\Program Files",
    "PROMPT": "$P$G",
    "PSModulePath": "C:\\Users\\cterleira\\Documents\\WindowsPowerShell\\Modules;C:\\Program Files\\WindowsPowerShell\\Modules;C:\\WINDOWS\\system32\\WindowsPowerShell\\v1.0\\Modules",
    "PUBLIC": "C:\\Users\\Public",
    "SESSIONNAME": "Console",
    "SystemDrive": "C:",
    "SystemRoot": "C:\\WINDOWS",
    "TEMP": "C:\\Users\\CTERLE~1\\AppData\\Local\\Temp",
    "TMP": "C:\\Users\\CTERLE~1\\AppData\\Local\\Temp",
    "UATDATA": "C:\\WINDOWS\\CCM\\UATData\\D9F8C395-CAB8-491d-B8AC-179A1FE1BE77",
    "USERDNSDOMAIN": "INDRA.ES",
    "USERDOMAIN": "INDRA",
    "USERDOMAIN_ROAMINGPROFILE": "INDRA",
    "USERNAME": "cterleira",
    "USERPROFILE": "C:\\Users\\cterleira",
    "WEBPACK_DEV_SERVER": "true",
    "windir": "C:\\WINDOWS",
    "TERM_PROGRAM": "vscode",
    "TERM_PROGRAM_VERSION": "1.55.2",
    "LANG": "es_ES.UTF-8",
    "COLORTERM": "truecolor",
    "VSCODE_GIT_IPC_HANDLE": "\\\\.\\pipe\\vscode-git-7d454002a5-sock",
    "GIT_ASKPASS": "c:\\Program Files\\Microsoft VS Code\\resources\\app\\extensions\\git\\dist\\askpass.sh",
    "VSCODE_GIT_ASKPASS_NODE": "C:\\Program Files\\Microsoft VS Code\\Code.exe",
    "VSCODE_GIT_ASKPASS_MAIN": "c:\\Program Files\\Microsoft VS Code\\resources\\app\\extensions\\git\\dist\\askpass-main.js"
  },
  "sharedObjects": [
    "C:\\Program Files\\nodejs\\node.exe",
    "C:\\WINDOWS\\SYSTEM32\\ntdll.dll",
    "C:\\WINDOWS\\System32\\KERNEL32.DLL",
    "C:\\WINDOWS\\System32\\KERNELBASE.dll",
    "C:\\WINDOWS\\System32\\WS2_32.dll",
    "C:\\WINDOWS\\System32\\RPCRT4.dll",
    "C:\\WINDOWS\\System32\\PSAPI.DLL",
    "C:\\WINDOWS\\System32\\ADVAPI32.dll",
    "C:\\WINDOWS\\System32\\msvcrt.dll",
    "C:\\WINDOWS\\System32\\sechost.dll",
    "C:\\WINDOWS\\System32\\USER32.dll",
    "C:\\WINDOWS\\System32\\win32u.dll",
    "C:\\WINDOWS\\System32\\GDI32.dll",
    "C:\\WINDOWS\\System32\\gdi32full.dll",
    "C:\\WINDOWS\\System32\\msvcp_win.dll",
    "C:\\WINDOWS\\System32\\ucrtbase.dll",
    "C:\\WINDOWS\\System32\\CRYPT32.dll",
    "C:\\WINDOWS\\System32\\bcrypt.dll",
    "C:\\WINDOWS\\SYSTEM32\\dbghelp.dll",
    "C:\\WINDOWS\\SYSTEM32\\USERENV.dll",
    "C:\\WINDOWS\\SYSTEM32\\IPHLPAPI.DLL",
    "C:\\WINDOWS\\SYSTEM32\\WINMM.dll",
    "C:\\WINDOWS\\System32\\IMM32.DLL",
    "C:\\WINDOWS\\system32\\tmumh\\20019\\AddOn\\8.53.0.1071\\TmUmEvt64.dll",
    "C:\\WINDOWS\\system32\\tmumh\\20019\\TmMon\\2.8.0.1049\\tmmon64.dll",
    "C:\\WINDOWS\\System32\\Shlwapi.dll",
    "C:\\WINDOWS\\SYSTEM32\\powrprof.dll",
    "C:\\WINDOWS\\SYSTEM32\\UMPDC.dll",
    "C:\\WINDOWS\\SYSTEM32\\CRYPTBASE.DLL",
    "C:\\WINDOWS\\system32\\uxtheme.dll",
    "C:\\WINDOWS\\System32\\combase.dll",
    "C:\\WINDOWS\\system32\\mswsock.dll",
    "C:\\WINDOWS\\SYSTEM32\\kernel.appcore.dll",
    "C:\\WINDOWS\\System32\\bcryptprimitives.dll",
    "C:\\WINDOWS\\System32\\NSI.dll",
    "C:\\WINDOWS\\SYSTEM32\\dhcpcsvc6.DLL",
    "C:\\WINDOWS\\SYSTEM32\\dhcpcsvc.DLL",
    "C:\\WINDOWS\\SYSTEM32\\DNSAPI.dll",
    "C:\\Windows\\System32\\rasadhlp.dll",
    "C:\\WINDOWS\\System32\\fwpuclnt.dll",
    "C:\\WINDOWS\\system32\\napinsp.dll",
    "C:\\WINDOWS\\system32\\pnrpnsp.dll",
    "C:\\WINDOWS\\system32\\wshbth.dll",
    "C:\\WINDOWS\\system32\\NLAapi.dll",
    "C:\\WINDOWS\\System32\\winrnr.dll"
  ]
}